{
  "format_version": "0.2",
  "terraform_version": "1.0.10",
  "planned_values": {
    "outputs": {
      "account_id": {
        "sensitive": false,
        "value": "632512868473"
      },
      "caller_arn": {
        "sensitive": false,
        "value": "arn:aws:iam::632512868473:user/tplisson"
      },
      "caller_user": {
        "sensitive": false,
        "value": "AIDAZGRFUOB4SY5VWKK4V"
      }
    },
    "root_module": {}
  },
  "output_changes": {
    "account_id": {
      "actions": [
        "create"
      ],
      "before": null,
      "after": "632512868473",
      "after_unknown": false,
      "before_sensitive": false,
      "after_sensitive": false
    },
    "caller_arn": {
      "actions": [
        "create"
      ],
      "before": null,
      "after": "arn:aws:iam::632512868473:user/tplisson",
      "after_unknown": false,
      "before_sensitive": false,
      "after_sensitive": false
    },
    "caller_user": {
      "actions": [
        "create"
      ],
      "before": null,
      "after": "AIDAZGRFUOB4SY5VWKK4V",
      "after_unknown": false,
      "before_sensitive": false,
      "after_sensitive": false
    }
  },
  "prior_state": {
    "format_version": "0.2",
    "terraform_version": "1.0.10",
    "values": {
      "outputs": {
        "account_id": {
          "sensitive": false,
          "value": "632512868473"
        },
        "caller_arn": {
          "sensitive": false,
          "value": "arn:aws:iam::632512868473:user/tplisson"
        },
        "caller_user": {
          "sensitive": false,
          "value": "AIDAZGRFUOB4SY5VWKK4V"
        }
      },
      "root_module": {
        "resources": [
          {
            "address": "data.aws_caller_identity.current",
            "mode": "data",
            "type": "aws_caller_identity",
            "name": "current",
            "provider_name": "registry.terraform.io/hashicorp/aws",
            "schema_version": 0,
            "values": {
              "account_id": "632512868473",
              "arn": "arn:aws:iam::632512868473:user/tplisson",
              "id": "632512868473",
              "user_id": "AIDAZGRFUOB4SY5VWKK4V"
            },
            "sensitive_values": {}
          },
          {
            "address": "data.aws_iam_policy_document.scenario_5_fail1",
            "mode": "data",
            "type": "aws_iam_policy_document",
            "name": "scenario_5_fail1",
            "provider_name": "registry.terraform.io/hashicorp/aws",
            "schema_version": 0,
            "values": {
              "id": "2721448325",
              "json": "{\n  \"Version\": \"2012-10-17\",\n  \"Statement\": [\n    {\n      \"Sid\": \"\",\n      \"Effect\": \"Allow\",\n      \"Action\": \"sts:AssumeRole\",\n      \"Principal\": {\n        \"Service\": [\n          \"s3.amazonaws.com\",\n          \"ec2.amazonaws.com\"\n        ]\n      }\n    }\n  ]\n}",
              "override_json": null,
              "override_policy_documents": null,
              "policy_id": null,
              "source_json": null,
              "source_policy_documents": null,
              "statement": [
                {
                  "actions": [
                    "sts:AssumeRole"
                  ],
                  "condition": [],
                  "effect": "Allow",
                  "not_actions": [],
                  "not_principals": [],
                  "not_resources": [],
                  "principals": [
                    {
                      "identifiers": [
                        "ec2.amazonaws.com",
                        "s3.amazonaws.com"
                      ],
                      "type": "Service"
                    }
                  ],
                  "resources": [],
                  "sid": ""
                }
              ],
              "version": "2012-10-17"
            },
            "sensitive_values": {
              "statement": [
                {
                  "actions": [
                    false
                  ],
                  "condition": [],
                  "not_actions": [],
                  "not_principals": [],
                  "not_resources": [],
                  "principals": [
                    {
                      "identifiers": [
                        false,
                        false
                      ]
                    }
                  ],
                  "resources": []
                }
              ]
            }
          },
          {
            "address": "data.aws_iam_policy_document.scenario_5_pass1",
            "mode": "data",
            "type": "aws_iam_policy_document",
            "name": "scenario_5_pass1",
            "provider_name": "registry.terraform.io/hashicorp/aws",
            "schema_version": 0,
            "values": {
              "id": "1903849331",
              "json": "{\n  \"Version\": \"2012-10-17\",\n  \"Statement\": [\n    {\n      \"Sid\": \"\",\n      \"Effect\": \"Allow\",\n      \"Action\": \"sts:AssumeRole\",\n      \"Principal\": {\n        \"Service\": \"ec2.amazonaws.com\"\n      }\n    }\n  ]\n}",
              "override_json": null,
              "override_policy_documents": null,
              "policy_id": null,
              "source_json": null,
              "source_policy_documents": null,
              "statement": [
                {
                  "actions": [
                    "sts:AssumeRole"
                  ],
                  "condition": [],
                  "effect": "Allow",
                  "not_actions": [],
                  "not_principals": [],
                  "not_resources": [],
                  "principals": [
                    {
                      "identifiers": [
                        "ec2.amazonaws.com"
                      ],
                      "type": "Service"
                    }
                  ],
                  "resources": [],
                  "sid": ""
                }
              ],
              "version": "2012-10-17"
            },
            "sensitive_values": {
              "statement": [
                {
                  "actions": [
                    false
                  ],
                  "condition": [],
                  "not_actions": [],
                  "not_principals": [],
                  "not_resources": [],
                  "principals": [
                    {
                      "identifiers": [
                        false
                      ]
                    }
                  ],
                  "resources": []
                }
              ]
            }
          }
        ]
      }
    }
  },
  "configuration": {
    "provider_config": {
      "aws": {
        "name": "aws",
        "version_constraint": "~> 4.0",
        "expressions": {
          "region": {
            "constant_value": "us-east-1"
          }
        }
      }
    },
    "root_module": {
      "outputs": {
        "account_id": {
          "expression": {
            "references": [
              "data.aws_caller_identity.current.account_id",
              "data.aws_caller_identity.current"
            ]
          }
        },
        "caller_arn": {
          "expression": {
            "references": [
              "data.aws_caller_identity.current.arn",
              "data.aws_caller_identity.current"
            ]
          }
        },
        "caller_user": {
          "expression": {
            "references": [
              "data.aws_caller_identity.current.user_id",
              "data.aws_caller_identity.current"
            ]
          }
        }
      },
      "resources": [
        {
          "address": "data.aws_caller_identity.current",
          "mode": "data",
          "type": "aws_caller_identity",
          "name": "current",
          "provider_config_key": "aws",
          "schema_version": 0
        },
        {
          "address": "data.aws_iam_policy_document.scenario_5_fail1",
          "mode": "data",
          "type": "aws_iam_policy_document",
          "name": "scenario_5_fail1",
          "provider_config_key": "aws",
          "expressions": {
            "statement": [
              {
                "actions": {
                  "constant_value": [
                    "sts:AssumeRole"
                  ]
                },
                "effect": {
                  "constant_value": "Allow"
                },
                "principals": [
                  {
                    "identifiers": {
                      "constant_value": [
                        "ec2.amazonaws.com",
                        "s3.amazonaws.com"
                      ]
                    },
                    "type": {
                      "constant_value": "Service"
                    }
                  }
                ]
              }
            ]
          },
          "schema_version": 0
        },
        {
          "address": "data.aws_iam_policy_document.scenario_5_pass1",
          "mode": "data",
          "type": "aws_iam_policy_document",
          "name": "scenario_5_pass1",
          "provider_config_key": "aws",
          "expressions": {
            "statement": [
              {
                "actions": {
                  "constant_value": [
                    "sts:AssumeRole"
                  ]
                },
                "effect": {
                  "constant_value": "Allow"
                },
                "principals": [
                  {
                    "identifiers": {
                      "constant_value": [
                        "ec2.amazonaws.com"
                      ]
                    },
                    "type": {
                      "constant_value": "Service"
                    }
                  }
                ]
              }
            ]
          },
          "schema_version": 0
        }
      ]
    }
  }
}
